;FLAVOR:Marlin
;TIME:186
;Filament used: 0.0477788m
;Layer height: 0.12
;MINX:10.2
;MINY:45.2
;MINZ:0.12
;MAXX:224.8
;MAXY:189.8
;MAXZ:0.12
;Generated with Cura_SteamEngine 4.8.0
M140 S60
M105
M190 S60
M104 S200
M105
M109 S200
M82 ;absolute extrusion mode
; Ender 3 Custom Start G-code
G92 E0 ; Reset Extruder
G28 ; Home all axes
G1 Z2.0 F3000 ; Move Z Axis up little to prevent scratching of Heat Bed
G1 X0.1 Y20 Z0.3 F5000.0 ; Move to start position
G1 X0.1 Y200.0 Z0.3 F1500.0 E15 ; Draw the first line
G1 X0.4 Y200.0 Z0.3 F5000.0 ; Move to side a little
G1 X0.4 Y20 Z0.3 F1500.0 E30 ; Draw the second line
G92 E0 ; Reset Extruder
G1 Z2.0 F3000 ; Move Z Axis up little to prevent scratching of Heat Bed
G1 X5 Y20 Z0.3 F5000.0 ; Move over to prevent blob squish
G92 E0
G92 E0
G1 F2700 E-5
;LAYER_COUNT:1
;LAYER:0
M107
;MESH:top_panel_text.stl
G0 F6000 X118.218 Y165.8 Z0.12
;TYPE:WALL-OUTER
G1 F2700 E0
G1 F1200 X118.218 Y161.508 E0.08565
G1 X118.472 Y161.508 E0.09072
G1 X118.472 Y163.519 E0.13085
G1 X120.765 Y163.519 E0.17661
G1 X120.765 Y161.508 E0.21674
G1 X121.019 Y161.508 E0.22181
G1 X121.019 Y165.8 E0.30746
G1 X120.765 Y165.8 E0.31253
G1 X120.765 Y163.783 E0.35278
G1 X118.472 Y163.783 E0.39854
G1 X118.472 Y165.8 E0.43879
G1 X118.218 Y165.8 E0.44386
G1 F2700 E-4.55614
G0 F6000 X118.322 Y165.63
G0 X118.338 Y163.803
G0 X116.894 Y163.803
G0 X115.981 Y163.803
G0 X115.811 Y163.917
G1 F2700 E0.44386
G1 F1200 X115.811 Y163.653 E0.44913
G1 X117.014 Y163.653 E0.47314
G1 X117.014 Y164.417 E0.48839
G1 X116.988 Y164.669 E0.49344
G1 X116.822 Y165.111 E0.50286
G1 X116.677 Y165.311 E0.50779
G1 X116.494 Y165.49 E0.5129
G1 X116.089 Y165.721 E0.52221
G1 X115.609 Y165.799 E0.53191
G1 X115.142 Y165.732 E0.54133
G1 X114.745 Y165.51 E0.5504
G1 X114.419 Y165.161 E0.55993
G1 X114.246 Y164.745 E0.56892
G1 X114.215 Y164.5 E0.57385
G1 X114.201 Y164.141 E0.58102
G1 X114.196 Y163.659 E0.59064
G1 X114.205 Y163.044 E0.60292
G1 X114.219 Y162.768 E0.60843
G1 X114.336 Y162.305 E0.61796
G1 X114.613 Y161.921 E0.62741
G1 X114.802 Y161.757 E0.6324
G1 X115.227 Y161.553 E0.64181
G1 X115.688 Y161.51 E0.65105
G1 X116.152 Y161.609 E0.66052
G1 X116.526 Y161.853 E0.66943
G1 X116.695 Y162.04 E0.67446
G1 X116.917 Y162.433 E0.68347
G1 X116.927 Y162.469 E0.68421
G1 X116.623 Y162.469 E0.69028
G1 X116.556 Y162.322 E0.6935
G1 X116.35 Y162.071 E0.69998
G1 X116.09 Y161.88 E0.70642
G1 X115.775 Y161.782 E0.71301
G1 X115.45 Y161.779 E0.71949
G1 X115.15 Y161.859 E0.72569
G1 X114.868 Y162.04 E0.73237
G1 X114.657 Y162.291 E0.73892
G1 X114.526 Y162.577 E0.7452
G1 X114.475 Y162.871 E0.75115
G1 X114.458 Y163.203 E0.75778
G1 X114.452 Y163.493 E0.76357
G1 X114.452 Y163.868 E0.77106
G1 X114.461 Y164.236 E0.7784
G1 X114.483 Y164.536 E0.78441
G1 X114.563 Y164.837 E0.79062
G1 X114.729 Y165.115 E0.79708
G1 X114.954 Y165.336 E0.80338
G1 X115.238 Y165.483 E0.80976
G1 X115.553 Y165.536 E0.81613
G1 X115.859 Y165.513 E0.82226
G1 X116.159 Y165.405 E0.82862
G1 X116.409 Y165.223 E0.83479
G1 X116.604 Y164.98 E0.84101
G1 X116.723 Y164.687 E0.84732
G1 X116.76 Y164.389 E0.85331
G1 X116.76 Y163.917 E0.86273
G1 X115.811 Y163.917 E0.88167
G1 F2700 E-4.11833
G0 F6000 X115.981 Y163.803
G0 X116.888 Y163.789
G0 X116.859 Y164.722
G0 X116.725 Y165.051
G0 X116.506 Y165.324
G0 X116.224 Y165.529
G0 X115.888 Y165.651
G0 X115.547 Y165.676
G0 X115.194 Y165.616
G0 X114.934 Y165.482
G0 X114.489 Y165.017
G0 X112.989 Y165.017
G0 X113.006 Y165.63
G0 X113.109 Y165.8
G1 F2700 E0.88167
G1 F1200 X112.856 Y165.8 E0.88672
G1 X112.856 Y161.508 E0.97237
G1 X113.109 Y161.508 E0.97742
G1 X113.109 Y165.8 E1.06307
G0 F6000 X113.006 Y165.63
G0 X111.666 Y165.686
G0 X111.786 Y165.8
G1 F1200 X109.236 Y165.8 E1.11396
G1 X109.236 Y161.508 E1.19961
G1 X109.49 Y161.508 E1.20468
G1 X109.49 Y165.536 E1.28506
G1 X111.786 Y165.536 E1.33088
G1 X111.786 Y165.8 E1.33615
G1 F2700 E-3.66385
G0 F6000 X111.616 Y165.686
G0 X112.003 Y164.683
G0 X110.343 Y160.655
G0 X108.383 Y160.655
G0 X108.383 Y166.653
G0 X121.872 Y166.653
G0 X122.313 Y165.65
G0 X123.298 Y165.65
G0 X123.178 Y165.8
G1 F2700 E1.33615
G1 F1200 X123.178 Y161.772 E1.41653
G1 X121.972 Y161.772 E1.4406
G1 X121.972 Y161.508 E1.44587
G1 X124.789 Y161.508 E1.50208
G1 X124.789 Y161.772 E1.50735
G1 X123.432 Y161.772 E1.53443
G1 X123.432 Y165.8 E1.61482
G1 X123.178 Y165.8 E1.61988
G1 F2700 E-3.38012
G0 F6000 X123.282 Y165.63
G0 X123.312 Y165.335
G0 X125.594 Y165.333
G0 X125.425 Y165.353
G1 F2700 E1.61988
G1 F1200 X125.623 Y165.132 E1.62581
G1 X125.711 Y165.194 E1.62795
G1 X125.984 Y165.337 E1.6341
G1 X126.274 Y165.444 E1.64027
G1 X126.587 Y165.512 E1.64666
G1 X126.865 Y165.535 E1.65223
G1 X127.172 Y165.519 E1.65837
G1 X127.474 Y165.442 E1.66459
G1 X127.752 Y165.279 E1.67102
G1 X127.962 Y165.006 E1.67789
G1 X128.024 Y164.666 E1.68479
G1 X127.961 Y164.331 E1.69159
G1 X127.747 Y164.047 E1.69869
G1 X127.44 Y163.899 E1.70549
G1 X127.105 Y163.842 E1.71227
G1 X126.802 Y163.802 E1.71837
G1 X126.336 Y163.708 E1.72785
G1 X125.942 Y163.489 E1.73685
G1 X125.678 Y163.119 E1.74592
G1 X125.593 Y162.706 E1.75434
G1 X125.659 Y162.244 E1.76365
G1 X125.881 Y161.876 E1.77223
G1 X126.238 Y161.623 E1.78096
G1 X126.686 Y161.517 E1.79014
G1 X126.933 Y161.509 E1.79508
G1 X127.21 Y161.532 E1.80062
G1 X127.672 Y161.654 E1.81016
G1 X128.065 Y161.833 E1.81878
G1 X127.917 Y162.068 E1.82432
G1 X127.853 Y162.033 E1.82577
G1 X127.6 Y161.921 E1.8313
G1 X127.299 Y161.826 E1.8376
G1 X126.998 Y161.778 E1.84368
G1 X126.7 Y161.777 E1.84962
G1 X126.393 Y161.845 E1.8559
G1 X126.098 Y162.016 E1.8627
G1 X125.896 Y162.311 E1.86984
G1 X125.841 Y162.646 E1.87661
G1 X125.931 Y162.985 E1.88361
G1 X126.161 Y163.25 E1.89062
G1 X126.457 Y163.387 E1.89713
G1 X126.774 Y163.448 E1.90357
G1 X127.284 Y163.517 E1.91384
G1 X127.709 Y163.657 E1.92277
G1 X128.028 Y163.931 E1.93116
G1 X128.227 Y164.321 E1.9399
G1 X128.271 Y164.761 E1.94872
G1 X128.154 Y165.198 E1.95775
G1 X127.872 Y165.523 E1.96634
G1 X127.46 Y165.723 E1.97548
G1 X127.205 Y165.777 E1.98068
G1 X126.963 Y165.799 E1.98553
G1 X126.667 Y165.792 E1.99144
G1 X126.411 Y165.763 E1.99658
G1 X126.164 Y165.71 E2.00162
G1 X125.912 Y165.625 E2.00693
G1 X125.679 Y165.516 E2.01206
G1 X125.465 Y165.385 E2.01707
G1 X125.425 Y165.353 E2.01809
G1 F2700 E-2.98191
G0 F6000 X125.67 Y165.335
G0 X126.235 Y165.578
G0 X126.863 Y165.674
G0 X127.527 Y165.571
G0 X127.845 Y165.385
G0 X128.092 Y165.064
G0 X128.15 Y164.752
G0 X129.135 Y164.739
G0 X136.109 Y164.177
G0 X137.092 Y164.137
G0 X137.206 Y164.891
G0 X137.39 Y165.201
G0 X137.645 Y165.45
G0 X137.966 Y165.616
G0 X138.319 Y165.676
G0 X138.66 Y165.651
G0 X138.995 Y165.529
G0 X139.278 Y165.324
G0 X139.496 Y165.051
G0 X139.63 Y164.722
G0 X139.661 Y163.789
G0 X138.753 Y163.803
G0 X138.583 Y163.917
G1 F2700 E2.01809
G1 F1200 X138.583 Y163.653 E2.02336
G1 X139.786 Y163.653 E2.04736
G1 X139.785 Y164.417 E2.06261
G1 X139.759 Y164.671 E2.06771
G1 X139.594 Y165.111 E2.07708
G1 X139.449 Y165.311 E2.08201
G1 X139.265 Y165.49 E2.08714
G1 X138.858 Y165.721 E2.09647
G1 X138.381 Y165.799 E2.10612
G1 X137.913 Y165.732 E2.11556
G1 X137.517 Y165.51 E2.12461
G1 X137.192 Y165.163 E2.1341
G1 X137.018 Y164.747 E2.1431
G1 X136.987 Y164.5 E2.14807
G1 X136.973 Y164.141 E2.15524
G1 X136.968 Y163.659 E2.16486
G1 X136.976 Y163.044 E2.17713
G1 X136.99 Y162.769 E2.18263
G1 X137.109 Y162.302 E2.19224
G1 X137.362 Y161.943 E2.20101
G1 X137.553 Y161.773 E2.20611
G1 X137.954 Y161.566 E2.21512
G1 X138.169 Y161.522 E2.2195
G1 X138.421 Y161.509 E2.22453
G1 X138.899 Y161.599 E2.23424
G1 X139.289 Y161.845 E2.24344
G1 X139.576 Y162.2 E2.25255
G1 X139.697 Y162.469 E2.25844
G1 X139.395 Y162.469 E2.26446
G1 X139.327 Y162.322 E2.2677
G1 X139.122 Y162.071 E2.27416
G1 X138.862 Y161.88 E2.2806
G1 X138.546 Y161.782 E2.2872
G1 X138.222 Y161.779 E2.29367
G1 X137.921 Y161.859 E2.29989
G1 X137.64 Y162.04 E2.30656
G1 X137.428 Y162.291 E2.31311
G1 X137.298 Y162.577 E2.31938
G1 X137.247 Y162.87 E2.32532
G1 X137.229 Y163.203 E2.33197
G1 X137.224 Y163.493 E2.33776
G1 X137.224 Y163.868 E2.34524
G1 X137.233 Y164.236 E2.35259
G1 X137.255 Y164.536 E2.35859
G1 X137.335 Y164.837 E2.36481
G1 X137.5 Y165.115 E2.37126
G1 X137.727 Y165.336 E2.37758
G1 X138.01 Y165.483 E2.38395
G1 X138.325 Y165.536 E2.39032
G1 X138.631 Y165.513 E2.39644
G1 X138.93 Y165.405 E2.40279
G1 X139.181 Y165.223 E2.40897
G1 X139.375 Y164.98 E2.41518
G1 X139.494 Y164.687 E2.42149
G1 X139.531 Y164.39 E2.42746
G1 X139.533 Y163.917 E2.4369
G1 X138.583 Y163.917 E2.45586
G1 F2700 E-2.54414
G0 F6000 X138.753 Y163.803
G0 X139.661 Y163.789
G0 X139.634 Y164.628
G0 X139.507 Y165.002
G0 X141.11 Y165.002
G0 X141.093 Y165.6
G0 X140.99 Y165.8
G1 F2700 E2.45586
G1 F1200 X140.99 Y161.508 E2.54151
G1 X143.539 Y161.508 E2.59238
G1 X143.539 Y161.772 E2.59765
G1 X141.243 Y161.772 E2.64347
G1 X141.243 Y163.519 E2.67833
G1 X143.204 Y163.519 E2.71747
G1 X143.204 Y163.783 E2.72273
G1 X141.243 Y163.783 E2.76187
G1 X141.243 Y165.536 E2.79685
G1 X143.539 Y165.536 E2.84267
G1 X143.539 Y165.8 E2.84794
G1 X140.99 Y165.8 E2.89881
G1 F2700 E-2.10119
G0 F6000 X141.093 Y165.6
G0 X143.425 Y165.65
G0 X144.808 Y164.434
G0 X144.9 Y164.464
G1 F2700 E2.89881
G1 F1200 X146.785 Y164.464 E2.93642
G1 X146.322 Y163.102 E2.96513
G1 X145.99 Y162.063 E2.9869
G1 X145.698 Y162.063 E2.99273
G1 X145.414 Y162.946 E3.01124
G1 X145.281 Y163.352 E3.01976
G1 X144.9 Y164.464 E3.04322
G1 F2700 E-1.95678
G0 F6000 X144.808 Y164.434
G0 X144.379 Y165.64
G0 X144.163 Y165.8
G1 F2700 E3.04322
G1 F1200 X145.692 Y161.508 E3.13414
G1 X145.982 Y161.508 E3.13993
G1 X147.512 Y165.8 E3.23086
G1 X147.211 Y165.8 E3.23687
G1 X146.859 Y164.728 E3.25939
G1 X144.834 Y164.728 E3.2998
G1 X144.47 Y165.8 E3.32239
G1 X144.163 Y165.8 E3.32852
G1 F2700 E-1.67148
G0 F6000 X144.379 Y165.64
G0 X144.739 Y164.596
G0 X146.957 Y164.587
G0 X146.846 Y164.232
G0 X148.751 Y164.232
G0 X148.831 Y163.525
G0 X148.885 Y163.525
G1 F2700 E3.32852
G1 F1200 X150.254 Y163.524 E3.35584
G1 X150.547 Y163.478 E3.36175
G1 X150.84 Y163.33 E3.3683
G1 X151.06 Y163.074 E3.37504
G1 X151.172 Y162.756 E3.38177
G1 X151.164 Y162.424 E3.3884
G1 X151.027 Y162.103 E3.39536
G1 X150.764 Y161.888 E3.40214
G1 X150.449 Y161.788 E3.40874
G1 X150.221 Y161.772 E3.4133
G1 X148.885 Y161.772 E3.43996
G1 X148.885 Y163.525 E3.47494
G1 F2700 E-1.52506
G0 F6000 X148.685 Y163.525
G0 X148.727 Y164.463
G0 X148.759 Y165.672
G0 X148.757 Y163.661
G0 X151.23 Y165.648
G0 X151.478 Y165.8
G1 F2700 E3.47494
G1 F1200 X151.11 Y165.8 E3.48229
G1 X150.131 Y163.789 E3.52692
G1 X148.885 Y163.789 E3.55178
G1 X148.885 Y165.8 E3.59192
G1 X148.631 Y165.8 E3.59699
G1 X148.631 Y161.508 E3.68264
G1 X150.275 Y161.508 E3.71544
G1 X150.733 Y161.587 E3.72472
G1 X151.094 Y161.821 E3.7333
G1 X151.341 Y162.184 E3.74207
G1 X151.431 Y162.618 E3.75091
G1 X151.356 Y163.054 E3.75974
G1 X151.113 Y163.439 E3.76883
G1 X150.737 Y163.691 E3.77786
G1 X150.459 Y163.798 E3.7838
G1 X151.478 Y165.8 E3.82863
G1 F2700 E-1.17137
G0 F6000 X151.187 Y165.669
G0 X152.166 Y165.247
G0 X160.371 Y165.69
G0 X161.356 Y165.69
G0 X161.386 Y163.519
G0 X161.49 Y163.519
G1 F2700 E3.82863
G1 F1200 X162.758 Y163.519 E3.85394
G1 X163.072 Y163.474 E3.86027
G1 X163.368 Y163.319 E3.86694
G1 X163.574 Y163.055 E3.87362
G1 X163.664 Y162.74 E3.88016
G1 X163.638 Y162.405 E3.88686
G1 X163.493 Y162.11 E3.89342
G1 X163.236 Y161.883 E3.90026
G1 X162.929 Y161.786 E3.90669
G1 X162.721 Y161.772 E3.91085
G1 X161.49 Y161.772 E3.93542
G1 X161.49 Y163.519 E3.97028
G1 F2700 E-1.02972
G0 F6000 X161.386 Y163.519
G0 X161.386 Y165.536
G0 X161.49 Y165.536
G1 F2700 E3.97028
G1 F1200 X162.886 Y165.535 E3.99814
G1 X163.197 Y165.485 E4.00442
G1 X163.485 Y165.33 E4.01095
G1 X163.695 Y165.055 E4.01785
G1 X163.784 Y164.728 E4.02462
G1 X163.748 Y164.396 E4.03128
G1 X163.591 Y164.105 E4.03788
G1 X163.333 Y163.89 E4.04458
G1 X163.029 Y163.798 E4.05092
G1 X162.811 Y163.783 E4.05528
G1 X161.49 Y163.783 E4.08164
G1 X161.49 Y165.536 E4.11663
G0 F6000 X161.236 Y165.8
G1 F1200 X161.236 Y161.508 E4.20228
G1 X162.829 Y161.508 E4.23407
G1 X163.297 Y161.588 E4.24354
G1 X163.484 Y161.681 E4.24771
G1 X163.651 Y161.826 E4.25212
G1 X163.781 Y162.006 E4.25656
G1 X163.909 Y162.42 E4.2652
G1 X163.886 Y162.862 E4.27404
G1 X163.811 Y163.074 E4.27852
G1 X163.7 Y163.233 E4.28239
G1 X163.512 Y163.388 E4.28726
G1 X163.14 Y163.704 E4.297
G1 X163.654 Y163.912 E4.30806
G1 X163.806 Y164.038 E4.312
G1 X163.998 Y164.413 E4.32041
G1 X164.029 Y164.839 E4.32893
G1 X163.907 Y165.259 E4.33766
G1 X163.774 Y165.445 E4.34222
G1 X163.423 Y165.702 E4.35091
G1 X162.991 Y165.799 E4.35974
G1 X161.236 Y165.8 E4.39476
G1 F2700 E-0.60524
G0 F6000 X161.34 Y165.599
G0 X162.897 Y165.674
G0 X163.241 Y165.618
G0 X163.576 Y165.438
G0 X163.821 Y165.117
G0 X163.924 Y164.74
G0 X163.883 Y164.356
G0 X165.378 Y164.345
G0 X165.458 Y163.525
G0 X165.512 Y163.525
G1 F2700 E4.39476
G1 F1200 X166.88 Y163.524 E4.42206
G1 X167.174 Y163.478 E4.428
G1 X167.467 Y163.33 E4.43455
G1 X167.687 Y163.074 E4.44129
G1 X167.799 Y162.756 E4.44802
G1 X167.791 Y162.424 E4.45464
G1 X167.654 Y162.103 E4.46161
G1 X167.391 Y161.888 E4.46839
G1 X167.075 Y161.788 E4.475
G1 X166.848 Y161.772 E4.47954
G1 X165.512 Y161.772 E4.50621
G1 X165.512 Y163.525 E4.54119
G1 F2700 E-0.45881
G0 F6000 X165.312 Y163.525
G0 X165.362 Y165.63
G0 X165.258 Y165.8
G1 F2700 E4.54119
G1 F1200 X165.258 Y161.508 E4.62684
G1 X166.902 Y161.508 E4.65965
G1 X167.36 Y161.587 E4.66892
G1 X167.721 Y161.821 E4.67751
G1 X167.97 Y162.189 E4.68638
G1 X168.058 Y162.618 E4.69511
G1 X167.983 Y163.054 E4.70394
G1 X167.738 Y163.441 E4.71308
G1 X167.364 Y163.691 E4.72206
G1 X167.085 Y163.797 E4.72802
G1 X168.104 Y165.8 E4.77286
G1 X167.736 Y165.8 E4.78021
G1 X166.758 Y163.789 E4.82483
G1 X165.512 Y163.789 E4.8497
G1 X165.512 Y165.8 E4.88983
G1 X165.258 Y165.8 E4.8949
G1 F2700 E-0.1051
G0 F6000 X165.362 Y165.63
G0 X165.384 Y163.661
G0 X166.842 Y163.656
G0 X167.503 Y165.007
G0 X167.745 Y165.315
G0 X169.478 Y164.434
G0 X169.572 Y164.464
G1 F2700 E4.8949
G1 F1200 X171.456 Y164.464 E4.9325
G1 X170.993 Y163.102 E4.9612
G1 X170.87 Y162.725 E4.96912
G1 X170.662 Y162.063 E4.98297
G1 X170.369 Y162.063 E4.98881
G1 X170.022 Y163.142 E5.01143
G1 X169.572 Y164.464 E5.0393
G1 F2700 E0.0393
G0 F6000 X169.478 Y164.434
G0 X169.049 Y165.64
G0 X168.833 Y165.8
G1 F2700 E5.0393
G1 F1200 X170.362 Y161.508 E5.13022
G1 X170.652 Y161.508 E5.13601
G1 X172.182 Y165.8 E5.22694
G1 X171.881 Y165.8 E5.23295
G1 X171.529 Y164.728 E5.25547
G1 X169.504 Y164.728 E5.29588
G1 X169.14 Y165.8 E5.31847
G1 X168.833 Y165.8 E5.3246
G1 F2700 E0.3246
G0 F6000 X169.049 Y165.64
G0 X170.197 Y162.269
G0 X170.322 Y161.952
G0 X170.592 Y161.788
G0 X170.57 Y161.802
;TYPE:SKIN
G1 F2700 E5.3246
G1 F1200 X170.476 Y161.708 E5.32592
G1 F2700 E0.32592
G0 F6000 X170.507 Y161.708
G0 X170.692 Y161.952
G0 X173.422 Y161.952
G0 X173.405 Y165.63
G0 X173.302 Y165.8
;TYPE:WALL-OUTER
G1 F2700 E5.32592
G1 F1200 X173.302 Y161.508 E5.41157
G1 X173.555 Y161.508 E5.41662
G1 X173.555 Y163.927 E5.4649
G1 X173.87 Y163.927 E5.47118
G1 X175.751 Y161.508 E5.53233
G1 X176.066 Y161.508 E5.53862
G1 X174.771 Y163.142 E5.58023
G1 X176.288 Y165.8 E5.6413
G1 X175.929 Y165.8 E5.64847
G1 X174.602 Y163.367 E5.70377
G1 X173.555 Y164.49 E5.73441
G1 X173.555 Y165.8 E5.76055
G1 X173.302 Y165.8 E5.7656
G0 F6000 X173.405 Y165.63
G0 X173.418 Y164.437
G0 X173.612 Y164.203
G0 X173.56 Y164.226
;TYPE:SKIN
G1 F1200 X173.476 Y164.142 E5.76679
G1 F2700 E0.76679
G0 F6000 X173.457 Y164.141
G0 X173.832 Y164.034
G0 X174.421 Y164.805
G0 X176.458 Y164.034
G0 X177.443 Y164.034
G0 X177.427 Y165.6
G0 X177.323 Y165.8
;TYPE:WALL-OUTER
G1 F2700 E5.76679
G1 F1200 X177.323 Y161.508 E5.85244
G1 X179.873 Y161.508 E5.90333
G1 X179.873 Y161.772 E5.9086
G1 X177.577 Y161.772 E5.95442
G1 X177.577 Y163.519 E5.98928
G1 X179.538 Y163.519 E6.02841
G1 X179.538 Y163.783 E6.03368
G1 X177.577 Y163.783 E6.07281
G1 X177.577 Y165.536 E6.1078
G1 X179.873 Y165.536 E6.15362
G1 X179.873 Y165.8 E6.15889
G1 X177.323 Y165.8 E6.20977
G1 F2700 E1.20977
G0 F6000 X177.427 Y165.6
G0 X177.449 Y161.644
G0 X179.753 Y161.652
G0 X179.753 Y160.643
G0 X183.023 Y119.948
G0 X183.336 Y119.015
G0 X183.046 Y118.835
G0 X182.802 Y118.853
G1 F2700 E6.20977
G1 F1200 X182.999 Y118.631 E6.2157
G1 X183.088 Y118.694 E6.21787
G1 X183.36 Y118.837 E6.224
G1 X183.651 Y118.944 E6.23019
G1 X183.964 Y119.013 E6.23659
G1 X184.241 Y119.035 E6.24213
G1 X184.549 Y119.019 E6.24829
G1 X184.851 Y118.942 E6.25451
G1 X185.128 Y118.779 E6.26092
G1 X185.339 Y118.506 E6.26781
G1 X185.401 Y118.166 E6.2747
G1 X185.338 Y117.831 E6.28151
G1 X185.124 Y117.548 E6.28859
G1 X184.832 Y117.402 E6.2951
G1 X184.482 Y117.342 E6.30219
G1 X184.178 Y117.302 E6.30831
G1 X183.711 Y117.208 E6.31781
G1 X183.318 Y116.989 E6.32679
G1 X183.055 Y116.623 E6.33579
G1 X182.97 Y116.206 E6.34428
G1 X183.037 Y115.742 E6.35363
G1 X183.26 Y115.373 E6.36224
G1 X183.613 Y115.124 E6.37086
G1 X184.062 Y115.017 E6.38007
G1 X184.31 Y115.009 E6.38502
G1 X184.587 Y115.032 E6.39057
G1 X185.049 Y115.154 E6.40011
G1 X185.442 Y115.333 E6.40872
G1 X185.293 Y115.568 E6.41428
G1 X185.229 Y115.533 E6.41573
G1 X184.977 Y115.421 E6.42123
G1 X184.676 Y115.326 E6.42753
G1 X184.374 Y115.278 E6.43364
G1 X184.077 Y115.277 E6.43956
G1 X183.771 Y115.345 E6.44582
G1 X183.487 Y115.505 E6.45232
G1 X183.282 Y115.784 E6.45923
G1 X183.218 Y116.124 E6.46614
G1 X183.292 Y116.456 E6.47292
G1 X183.512 Y116.73 E6.47994
G1 X183.8 Y116.876 E6.48638
G1 X184.149 Y116.948 E6.49349
G1 X184.661 Y117.017 E6.5038
G1 X185.085 Y117.157 E6.51271
G1 X185.403 Y117.428 E6.52105
G1 X185.604 Y117.821 E6.52986
G1 X185.648 Y118.26 E6.53866
G1 X185.53 Y118.698 E6.54772
G1 X185.249 Y119.023 E6.55629
G1 X184.837 Y119.223 E6.56543
G1 X184.581 Y119.277 E6.57065
G1 X184.339 Y119.299 E6.5755
G1 X184.044 Y119.292 E6.58139
G1 X183.798 Y119.264 E6.58633
G1 X183.532 Y119.207 E6.59176
G1 X183.288 Y119.125 E6.5969
G1 X183.056 Y119.016 E6.60201
G1 X182.842 Y118.885 E6.60702
G1 X182.802 Y118.853 E6.60804
G1 F2700 E1.60804
G0 F6000 X183.046 Y118.835
G0 X183.612 Y119.078
G0 X184.24 Y119.174
G0 X184.904 Y119.071
G0 X185.422 Y118.642
G0 X187.78 Y118.642
G0 X187.764 Y119.13
G0 X187.66 Y119.3
G1 F2700 E6.60804
G1 F1200 X187.66 Y115.272 E6.68842
G1 X186.454 Y115.272 E6.71249
G1 X186.454 Y115.008 E6.71776
G1 X189.271 Y115.008 E6.77398
G1 X189.271 Y115.272 E6.77924
G1 X187.914 Y115.272 E6.80632
G1 X187.914 Y119.3 E6.88671
G1 X187.66 Y119.3 E6.89178
G1 F2700 E1.89178
G0 F6000 X187.764 Y119.13
G0 X187.794 Y117.934
G0 X190.54 Y117.934
G0 X190.632 Y117.964
G1 F2700 E6.89178
G1 F1200 X192.517 Y117.964 E6.92939
G1 X192.054 Y116.602 E6.9581
G1 X191.722 Y115.563 E6.97987
G1 X191.43 Y115.563 E6.9857
G1 X191.146 Y116.446 E7.00421
G1 X191.013 Y116.852 E7.01273
G1 X190.632 Y117.964 E7.03619
G1 F2700 E2.03619
G0 F6000 X190.54 Y117.934
G0 X190.11 Y119.14
G0 X189.894 Y119.3
G1 F2700 E7.03619
G1 F1200 X191.424 Y115.008 E7.12712
G1 X191.714 Y115.008 E7.13291
G1 X193.243 Y119.3 E7.22383
G1 X192.942 Y119.3 E7.22984
G1 X192.591 Y118.228 E7.25235
G1 X190.566 Y118.228 E7.29276
G1 X190.202 Y119.3 E7.31535
G1 X189.894 Y119.3 E7.3215
G1 F2700 E2.3215
G0 F6000 X190.11 Y119.14
G0 X191.251 Y115.793
G0 X191.384 Y115.452
G0 X191.607 Y115.304
G0 X191.61 Y115.242
;TYPE:SKIN
G1 F2700 E7.3215
G1 F1200 X191.57 Y115.203 E7.32206
G1 F2700 E2.32206
G0 F6000 X191.569 Y115.208
G0 X191.754 Y115.452
G0 X194.283 Y116.102
G0 X194.437 Y115.716
G0 X194.674 Y115.434
G0 X194.991 Y115.23
G0 X195.332 Y115.14
G0 X195.695 Y115.143
G0 X196.052 Y115.254
G0 X196.592 Y115.811
G0 X196.826 Y115.969
;TYPE:WALL-OUTER
G1 F2700 E7.32206
G1 F1200 X196.522 Y115.969 E7.32812
G1 X196.454 Y115.822 E7.33136
G1 X196.249 Y115.571 E7.33782
G1 X195.988 Y115.38 E7.34428
G1 X195.673 Y115.282 E7.35086
G1 X195.349 Y115.279 E7.35733
G1 X195.048 Y115.359 E7.36354
G1 X194.767 Y115.54 E7.37021
G1 X194.555 Y115.791 E7.37677
G1 X194.425 Y116.077 E7.38304
G1 X194.374 Y116.37 E7.38897
G1 X194.356 Y116.703 E7.39563
G1 X194.351 Y116.993 E7.40142
G1 X194.351 Y117.368 E7.4089
G1 X194.36 Y117.736 E7.41625
G1 X194.382 Y118.036 E7.42225
G1 X194.462 Y118.337 E7.42846
G1 X194.616 Y118.601 E7.43456
G1 X194.838 Y118.825 E7.44086
G1 X195.115 Y118.975 E7.44714
G1 X195.427 Y119.034 E7.45348
G1 X195.734 Y119.017 E7.45962
G1 X196.035 Y118.918 E7.46594
G1 X196.293 Y118.738 E7.47222
G1 X196.49 Y118.499 E7.4784
G1 X196.614 Y118.21 E7.48467
G1 X196.658 Y117.913 E7.49066
G1 X196.66 Y117.417 E7.50056
G1 X195.71 Y117.417 E7.51952
G1 X195.71 Y117.153 E7.52479
G1 X196.912 Y117.153 E7.54878
G1 X196.912 Y117.913 E7.56394
G1 X196.886 Y118.171 E7.56912
G1 X196.717 Y118.616 E7.57862
G1 X196.578 Y118.809 E7.58336
G1 X196.392 Y118.99 E7.58854
G1 X195.985 Y119.221 E7.59788
G1 X195.508 Y119.299 E7.60753
G1 X195.04 Y119.232 E7.61696
G1 X194.644 Y119.01 E7.62602
G1 X194.319 Y118.663 E7.63551
G1 X194.145 Y118.247 E7.64451
G1 X194.114 Y118 E7.64948
G1 X194.1 Y117.641 E7.65665
G1 X194.095 Y117.159 E7.66627
G1 X194.103 Y116.544 E7.67854
G1 X194.117 Y116.269 E7.68403
G1 X194.236 Y115.802 E7.69365
G1 X194.51 Y115.422 E7.703
G1 X194.7 Y115.258 E7.70801
G1 X195.126 Y115.053 E7.71744
G1 X195.587 Y115.01 E7.72668
G1 X196.05 Y115.109 E7.73613
G1 X196.428 Y115.357 E7.74515
G1 X196.72 Y115.731 E7.75462
G1 X196.826 Y115.969 E7.75982
G1 F2700 E2.75982
G0 F6000 X196.592 Y115.811
G0 X196.332 Y115.461
G0 X195.995 Y115.239
G0 X195.58 Y115.15
G0 X195.161 Y115.189
G0 X194.777 Y115.375
G0 X194.365 Y115.86
G0 X194.255 Y116.289
G0 X194.239 Y117.637
G0 X194.28 Y118.21
G0 X194.437 Y118.587
G0 X194.73 Y118.899
G0 X195.084 Y119.099
G0 X195.506 Y119.159
G0 X195.939 Y119.088
G0 X196.306 Y118.88
G0 X196.564 Y118.584
G0 X196.769 Y118.143
G0 X198.237 Y118.143
G0 X198.22 Y119.1
G0 X198.117 Y119.3
G1 F2700 E7.75982
G1 F1200 X198.117 Y115.008 E7.84547
G1 X200.666 Y115.008 E7.89634
G1 X200.666 Y115.272 E7.90161
G1 X198.37 Y115.272 E7.94743
G1 X198.37 Y117.019 E7.98229
G1 X200.331 Y117.019 E8.02143
G1 X200.331 Y117.283 E8.0267
G1 X198.37 Y117.283 E8.06583
G1 X198.37 Y119.036 E8.10081
G1 X200.666 Y119.036 E8.14663
G1 X200.666 Y119.3 E8.1519
G1 X198.117 Y119.3 E8.20277
G1 F2700 E3.20277
G0 F6000 X198.22 Y119.1
G0 X198.231 Y115.122
G0 X198.231 Y114.143
G0 X174.253 Y80.96
G0 X173.753 Y80.112
G0 X173.175 Y80.16
G0 X172.874 Y80.037
G0 X172.529 Y79.652
G0 X172.31 Y79.493
G1 F2700 E8.20277
G1 F1200 X172.614 Y79.493 E8.20883
G1 X172.665 Y79.636 E8.21186
G1 X172.885 Y79.891 E8.21859
G1 X173.204 Y80.022 E8.22547
G1 X173.526 Y80.033 E8.2319
G1 X173.862 Y79.94 E8.23885
G1 X174.1 Y79.69 E8.24574
G1 X174.188 Y79.325 E8.25324
G1 X174.225 Y79.002 E8.25972
G1 X174.227 Y78.727 E8.26521
G1 X174.191 Y78.431 E8.27116
G1 X174.098 Y78.138 E8.2773
G1 X173.887 Y77.874 E8.28404
G1 X173.558 Y77.756 E8.29102
G1 X173.221 Y77.757 E8.29774
G1 X172.912 Y77.891 E8.30446
G1 X172.698 Y78.121 E8.31073
G1 X172.693 Y78.13 E8.31094
G1 X172.352 Y78.13 E8.31774
G1 X172.352 Y76.008 E8.36009
G1 X174.39 Y76.008 E8.40076
G1 X174.39 Y76.272 E8.40603
G1 X172.606 Y76.272 E8.44163
G1 X172.606 Y77.655 E8.46923
G1 X172.816 Y77.769 E8.474
G1 X173.106 Y77.578 E8.48093
G1 X173.524 Y77.484 E8.48948
G1 X173.737 Y77.508 E8.49375
G1 X174.107 Y77.693 E8.50201
G1 X174.368 Y78.047 E8.51079
G1 X174.437 Y78.254 E8.51514
G1 X174.47 Y78.52 E8.52049
G1 X174.481 Y78.807 E8.52622
G1 X174.478 Y79.12 E8.53247
G1 X174.403 Y79.584 E8.54185
G1 X174.171 Y79.962 E8.5507
G1 X173.805 Y80.221 E8.55965
G1 X173.587 Y80.285 E8.56418
G1 X173.122 Y80.265 E8.57347
G1 X172.703 Y80.082 E8.58259
G1 X172.54 Y79.952 E8.58675
G1 X172.42 Y79.79 E8.59078
G1 X172.31 Y79.493 E8.5971
G1 F2700 E3.5971
G0 F6000 X172.529 Y79.652
G0 X172.533 Y78.01
G0 X172.658 Y77.906
;TYPE:SKIN
G1 F2700 E8.5971
G1 F1200 X172.607 Y77.855 E8.59782
G1 F2700 E3.59782
G0 F6000 X172.595 Y77.874
G0 X172.496 Y77.615
G0 X172.472 Y76.811
G0 X171.487 Y76.811
G0 X170.522 Y76.627
G0 X169.551 Y76.859
G0 X169.721 Y76.969
;TYPE:WALL-OUTER
G1 F2700 E8.59782
G1 F1200 X169.417 Y76.969 E8.60388
G1 X169.349 Y76.822 E8.60712
G1 X169.143 Y76.571 E8.6136
G1 X168.883 Y76.38 E8.62003
G1 X168.568 Y76.282 E8.62662
G1 X168.244 Y76.279 E8.63308
G1 X167.943 Y76.359 E8.6393
G1 X167.662 Y76.54 E8.64597
G1 X167.451 Y76.791 E8.65251
G1 X167.319 Y77.077 E8.6588
G1 X167.269 Y77.371 E8.66475
G1 X167.251 Y77.703 E8.67139
G1 X167.245 Y77.993 E8.67717
G1 X167.245 Y78.369 E8.68468
G1 X167.255 Y78.736 E8.692
G1 X167.277 Y79.036 E8.69801
G1 X167.356 Y79.337 E8.70422
G1 X167.522 Y79.615 E8.71068
G1 X167.749 Y79.836 E8.717
G1 X168.032 Y79.983 E8.72336
G1 X168.347 Y80.036 E8.72974
G1 X168.652 Y80.013 E8.73584
G1 X168.952 Y79.905 E8.74221
G1 X169.202 Y79.723 E8.74838
G1 X169.397 Y79.48 E8.7546
G1 X169.516 Y79.187 E8.76091
G1 X169.553 Y78.891 E8.76686
G1 X169.555 Y78.417 E8.77632
G1 X168.605 Y78.417 E8.79528
G1 X168.605 Y78.153 E8.80054
G1 X169.807 Y78.153 E8.82453
G1 X169.807 Y78.917 E8.83978
G1 X169.781 Y79.171 E8.84487
G1 X169.614 Y79.613 E8.8543
G1 X169.47 Y79.811 E8.85919
G1 X169.287 Y79.99 E8.8643
G1 X168.881 Y80.221 E8.87362
G1 X168.403 Y80.299 E8.88328
G1 X167.935 Y80.232 E8.89272
G1 X167.539 Y80.01 E8.90178
G1 X167.214 Y79.663 E8.91127
G1 X167.04 Y79.247 E8.92027
G1 X167.009 Y79 E8.92523
G1 X166.995 Y78.641 E8.9324
G1 X166.99 Y78.159 E8.94202
G1 X166.998 Y77.544 E8.9543
G1 X167.012 Y77.269 E8.95979
G1 X167.131 Y76.802 E8.96941
G1 X167.405 Y76.422 E8.97876
G1 X167.596 Y76.258 E8.98378
G1 X167.801 Y76.131 E8.98859
G1 X168.257 Y76.016 E8.99798
G1 X168.482 Y76.01 E9.00247
G1 X168.945 Y76.109 E9.01192
G1 X169.323 Y76.357 E9.02094
G1 X169.615 Y76.731 E9.03041
G1 X169.721 Y76.969 E9.03561
G1 F2700 E4.03561
G0 F6000 X169.487 Y76.811
G0 X169.239 Y76.469
G0 X168.947 Y76.254
G0 X168.59 Y76.143
G0 X168.227 Y76.14
G0 X167.886 Y76.23
G0 X167.569 Y76.435
G0 X167.333 Y76.716
G0 X167.185 Y77.036
G0 X167.141 Y77.792
G0 X167.114 Y78.637
G0 X166.162 Y77.887
G0 X165.214 Y75.151
G0 X163.714 Y75.151
G0 X162.48 Y78.594
G0 X163.527 Y78.964
G1 F2700 E9.03561
G1 F1200 X165.412 Y78.964 E9.07323
G1 X164.949 Y77.602 E9.10193
G1 X164.617 Y76.563 E9.1237
G1 X164.326 Y76.563 E9.12951
G1 X163.908 Y77.852 E9.15655
G1 X163.527 Y78.964 E9.18001
G1 F2700 E4.18001
G0 F6000 X163.435 Y78.934
G0 X163.005 Y80.14
G0 X162.789 Y80.3
G1 F2700 E9.18001
G1 F1200 X164.319 Y76.008 E9.27094
G1 X164.609 Y76.008 E9.27673
G1 X166.138 Y80.3 E9.36765
G1 X165.837 Y80.3 E9.37366
G1 X165.485 Y79.228 E9.39617
G1 X163.461 Y79.228 E9.43657
G1 X163.096 Y80.3 E9.45916
G1 X162.789 Y80.3 E9.46529
G1 F2700 E4.46529
G0 F6000 X163.005 Y80.14
G0 X164.148 Y76.787
G0 X164.279 Y76.452
G0 X164.502 Y76.304
G0 X164.514 Y76.267
;TYPE:SKIN
G1 F2700 E9.46529
G1 F1200 X164.45 Y76.203 E9.46619
G1 F2700 E4.46619
G0 F6000 X164.464 Y76.208
G0 X164.279 Y76.452
G0 X163.359 Y76.125
G0 X149.633 Y79.473
G0 X148.654 Y79.473
G0 X148.215 Y80.13
G0 X148.112 Y80.3
;TYPE:WALL-OUTER
G1 F2700 E9.46619
G1 F1200 X148.112 Y79.623 E9.4797
G1 X146.218 Y79.623 E9.5175
G1 X146.218 Y79.202 E9.5259
G1 X147.668 Y76.008 E9.5959
G1 X147.954 Y76.008 E9.60161
G1 X146.416 Y79.359 E9.67519
G1 X148.112 Y79.359 E9.70904
G1 X148.112 Y78.019 E9.73578
G1 X148.365 Y78.019 E9.74083
G1 X148.365 Y79.359 E9.76757
G1 X148.768 Y79.359 E9.77561
G1 X148.768 Y79.623 E9.78088
G1 X148.365 Y79.623 E9.78892
G1 X148.365 Y80.3 E9.80243
G1 X148.112 Y80.3 E9.80748
G1 F2700 E4.80748
G0 F6000 X148.215 Y80.13
G0 X148.24 Y79.495
G0 X146.332 Y79.473
G0 X145.353 Y79.473
G0 X144.621 Y76.966
G0 X143.551 Y76.859
G0 X143.721 Y76.969
G1 F2700 E9.80748
G1 F1200 X143.417 Y76.969 E9.81355
G1 X143.349 Y76.822 E9.81678
G1 X143.143 Y76.571 E9.82326
G1 X142.883 Y76.38 E9.8297
G1 X142.568 Y76.282 E9.83628
G1 X142.244 Y76.279 E9.84275
G1 X141.943 Y76.359 E9.84896
G1 X141.662 Y76.54 E9.85563
G1 X141.451 Y76.791 E9.86217
G1 X141.319 Y77.077 E9.86846
G1 X141.269 Y77.371 E9.87441
G1 X141.251 Y77.703 E9.88105
G1 X141.245 Y77.993 E9.88684
G1 X141.245 Y78.369 E9.89434
G1 X141.255 Y78.736 E9.90167
G1 X141.277 Y79.036 E9.90767
G1 X141.356 Y79.337 E9.91388
G1 X141.522 Y79.615 E9.92034
G1 X141.749 Y79.836 E9.92666
G1 X142.032 Y79.983 E9.93303
G1 X142.347 Y80.036 E9.9394
G1 X142.652 Y80.013 E9.94551
G1 X142.952 Y79.905 E9.95187
G1 X143.202 Y79.723 E9.95804
G1 X143.397 Y79.48 E9.96426
G1 X143.516 Y79.187 E9.97057
G1 X143.553 Y78.891 E9.97652
G1 X143.555 Y78.417 E9.98598
G1 X142.605 Y78.417 E10.00494
G1 X142.605 Y78.153 E10.01021
G1 X143.807 Y78.153 E10.03419
G1 X143.807 Y78.917 E10.04944
G1 X143.781 Y79.171 E10.05454
G1 X143.614 Y79.613 E10.06396
G1 X143.47 Y79.811 E10.06885
G1 X143.287 Y79.99 E10.07396
G1 X142.881 Y80.221 E10.08328
G1 X142.403 Y80.299 E10.09295
G1 X141.935 Y80.232 E10.10238
G1 X141.539 Y80.01 E10.11144
G1 X141.214 Y79.663 E10.12093
G1 X141.04 Y79.247 E10.12993
G1 X141.009 Y79 E10.13489
G1 X140.995 Y78.641 E10.14206
G1 X140.99 Y78.159 E10.15168
G1 X140.998 Y77.544 E10.16396
G1 X141.012 Y77.269 E10.16945
G1 X141.131 Y76.802 E10.17907
G1 X141.405 Y76.422 E10.18842
G1 X141.596 Y76.258 E10.19344
G1 X141.801 Y76.131 E10.19826
G1 X142.257 Y76.016 E10.20764
G1 X142.482 Y76.01 E10.21213
G1 X142.945 Y76.109 E10.22158
G1 X143.323 Y76.357 E10.2306
G1 X143.615 Y76.731 E10.24007
G1 X143.721 Y76.969 E10.24527
G1 F2700 E5.24527
G0 F6000 X143.487 Y76.811
G0 X143.239 Y76.469
G0 X142.947 Y76.254
G0 X142.59 Y76.143
G0 X142.227 Y76.14
G0 X141.886 Y76.23
G0 X141.569 Y76.435
G0 X141.333 Y76.716
G0 X141.185 Y77.036
G0 X141.141 Y77.792
G0 X141.114 Y78.637
G0 X140.162 Y77.887
G0 X139.214 Y75.151
G0 X137.714 Y75.151
G0 X136.48 Y78.594
G0 X137.527 Y78.964
G1 F2700 E10.24527
G1 F1200 X139.412 Y78.964 E10.28289
G1 X138.949 Y77.602 E10.3116
G1 X138.617 Y76.563 E10.33336
G1 X138.326 Y76.563 E10.33917
G1 X137.908 Y77.852 E10.36621
G1 X137.527 Y78.964 E10.38967
G1 F2700 E5.38967
G0 F6000 X137.435 Y78.934
G0 X137.005 Y80.14
G0 X136.789 Y80.3
G1 F2700 E10.38967
G1 F1200 X138.319 Y76.008 E10.4806
G1 X138.609 Y76.008 E10.48639
G1 X140.138 Y80.3 E10.57731
G1 X139.837 Y80.3 E10.58332
G1 X139.485 Y79.228 E10.60584
G1 X137.461 Y79.228 E10.64623
G1 X137.096 Y80.3 E10.66883
G1 X136.789 Y80.3 E10.67495
G1 F2700 E5.67495
G0 F6000 X137.005 Y80.14
G0 X138.148 Y76.787
G0 X138.279 Y76.452
G0 X138.549 Y76.288
G0 X138.525 Y76.3
;TYPE:SKIN
G1 F2700 E10.67495
G1 F1200 X138.433 Y76.207 E10.67626
G1 F2700 E5.67626
G0 F6000 X138.464 Y76.208
G0 X138.279 Y76.452
G0 X137.359 Y76.125
G0 X123.203 Y78.755
G0 X122.239 Y78.957
G0 X122.212 Y79.428
G0 X122.041 Y79.779
G0 X121.75 Y80.036
G0 X121.381 Y80.169
G0 X121.003 Y80.161
G0 X120.711 Y80.037
G0 X120.374 Y79.648
G0 X120.157 Y79.506
;TYPE:WALL-OUTER
G1 F2700 E10.67626
G1 F1200 X120.44 Y79.506 E10.68191
G1 X120.507 Y79.643 E10.68495
G1 X120.723 Y79.891 E10.69151
G1 X121.033 Y80.022 E10.69823
G1 X121.36 Y80.03 E10.70476
G1 X121.678 Y79.915 E10.7115
G1 X121.929 Y79.693 E10.71819
G1 X122.077 Y79.39 E10.72492
G1 X122.114 Y79.064 E10.73147
G1 X122.06 Y78.739 E10.73804
G1 X121.898 Y78.455 E10.74457
G1 X121.632 Y78.248 E10.75129
G1 X121.321 Y78.159 E10.75775
G1 X121.157 Y78.157 E10.76102
G1 X121.157 Y77.89 E10.76635
G1 X121.256 Y77.89 E10.76833
G1 X121.571 Y77.832 E10.77472
G1 X121.854 Y77.659 E10.78134
G1 X122.051 Y77.37 E10.78832
G1 X122.098 Y77.026 E10.79525
G1 X121.997 Y76.696 E10.80213
G1 X121.762 Y76.441 E10.80905
G1 X121.46 Y76.297 E10.81573
G1 X121.121 Y76.274 E10.82251
G1 X120.795 Y76.381 E10.82936
G1 X120.533 Y76.605 E10.83624
G1 X120.455 Y76.785 E10.84015
G1 X120.173 Y76.785 E10.84578
G1 X120.385 Y76.402 E10.85451
G1 X120.743 Y76.114 E10.86368
G1 X121.148 Y76.011 E10.87202
G1 X121.6 Y76.067 E10.88111
G1 X121.976 Y76.285 E10.88979
G1 X122.247 Y76.648 E10.89883
G1 X122.347 Y77.064 E10.90736
G1 X122.268 Y77.481 E10.91583
G1 X122.165 Y77.652 E10.91982
G1 X122.003 Y77.797 E10.92416
G1 X121.696 Y77.997 E10.93147
G1 X122.097 Y78.329 E10.94186
G1 X122.223 Y78.5 E10.9461
G1 X122.359 Y78.943 E10.95534
G1 X122.325 Y79.424 E10.96497
G1 X122.143 Y79.829 E10.97383
G1 X121.796 Y80.144 E10.98318
G1 X121.378 Y80.286 E10.99199
G1 X120.915 Y80.263 E11.00124
G1 X120.513 Y80.058 E11.01025
G1 X120.241 Y79.72 E11.0189
G1 X120.157 Y79.506 E11.02349
G1 F2700 E6.02349
G0 F6000 X120.374 Y79.648
G0 X117.688 Y78.913
G0 X117.49 Y79.546
G0 X117.203 Y79.878
G0 X116.835 Y80.088
G0 X116.401 Y80.159
G0 X115.979 Y80.099
G0 X115.625 Y79.899
G0 X115.332 Y79.587
G0 X115.175 Y79.21
G0 X115.134 Y78.637
G0 X115.15 Y77.289
G0 X115.26 Y76.86
G0 X115.503 Y76.523
G0 X115.864 Y76.258
G0 X116.275 Y76.155
G0 X116.89 Y76.239
G0 X117.162 Y76.418
G0 X117.487 Y76.811
G0 X117.721 Y76.969
G1 F2700 E11.02349
G1 F1200 X117.417 Y76.969 E11.02956
G1 X117.349 Y76.822 E11.03279
G1 X117.143 Y76.571 E11.03927
G1 X116.883 Y76.38 E11.04571
G1 X116.568 Y76.282 E11.05229
G1 X116.244 Y76.279 E11.05876
G1 X115.943 Y76.359 E11.06497
G1 X115.662 Y76.54 E11.07164
G1 X115.451 Y76.791 E11.07819
G1 X115.319 Y77.077 E11.08447
G1 X115.269 Y77.371 E11.09042
G1 X115.251 Y77.703 E11.09706
G1 X115.245 Y77.993 E11.10285
G1 X115.245 Y78.369 E11.11035
G1 X115.255 Y78.736 E11.11768
G1 X115.277 Y79.036 E11.12368
G1 X115.356 Y79.337 E11.12989
G1 X115.511 Y79.601 E11.136
G1 X115.733 Y79.825 E11.14229
G1 X116.01 Y79.975 E11.14858
G1 X116.322 Y80.034 E11.15492
G1 X116.629 Y80.017 E11.16105
G1 X116.928 Y79.918 E11.16734
G1 X117.187 Y79.738 E11.17363
G1 X117.385 Y79.499 E11.17983
G1 X117.509 Y79.21 E11.1861
G1 X117.553 Y78.913 E11.19209
G1 X117.555 Y78.417 E11.20199
G1 X116.605 Y78.417 E11.22095
G1 X116.605 Y78.153 E11.22622
G1 X117.807 Y78.153 E11.25021
G1 X117.807 Y78.913 E11.26537
G1 X117.781 Y79.171 E11.27055
G1 X117.614 Y79.613 E11.27998
G1 X117.47 Y79.811 E11.28486
G1 X117.287 Y79.99 E11.28997
G1 X116.881 Y80.221 E11.29929
G1 X116.403 Y80.299 E11.30896
G1 X115.935 Y80.232 E11.31839
G1 X115.539 Y80.01 E11.32745
G1 X115.214 Y79.663 E11.33694
G1 X115.04 Y79.247 E11.34594
G1 X115.009 Y79 E11.35091
G1 X114.995 Y78.641 E11.35808
G1 X114.99 Y78.159 E11.3677
G1 X114.998 Y77.544 E11.37997
G1 X115.012 Y77.269 E11.38546
G1 X115.131 Y76.802 E11.39508
G1 X115.405 Y76.422 E11.40443
G1 X115.803 Y76.13 E11.41428
G1 X116.257 Y76.016 E11.42362
G1 X116.482 Y76.01 E11.42812
G1 X116.945 Y76.109 E11.43756
G1 X117.323 Y76.357 E11.44659
G1 X117.615 Y76.731 E11.45605
G1 X117.721 Y76.969 E11.46125
G1 F2700 E6.46125
G0 F6000 X117.487 Y76.811
G0 X117.239 Y76.469
G0 X116.947 Y76.254
G0 X116.59 Y76.143
G0 X116.227 Y76.14
G0 X115.886 Y76.23
G0 X115.569 Y76.435
G0 X115.333 Y76.716
G0 X115.185 Y77.036
G0 X115.141 Y77.792
G0 X115.128 Y78.995
G0 X113.742 Y79.488
G0 X113.412 Y79.078
G0 X113.412 Y78.964
G1 F2700 E11.46125
G1 F1200 X112.949 Y77.602 E11.48996
G1 X112.617 Y76.563 E11.51173
G1 X112.326 Y76.563 E11.51754
G1 X111.908 Y77.852 E11.54458
G1 X111.527 Y78.964 E11.56804
G1 X113.412 Y78.964 E11.60565
G1 F2700 E6.60565
G0 F6000 X113.412 Y79.078
G0 X113.915 Y80.143
G0 X114.138 Y80.3
G1 F2700 E11.60565
G1 F1200 X113.837 Y80.3 E11.61166
G1 X113.485 Y79.228 E11.63418
G1 X111.461 Y79.228 E11.67457
G1 X111.096 Y80.3 E11.69717
G1 X110.789 Y80.3 E11.70329
G1 X112.319 Y76.008 E11.79422
G1 X112.609 Y76.008 E11.80001
G1 X114.138 Y80.3 E11.89094
G1 F2700 E6.89094
G0 F6000 X113.922 Y80.142
G0 X113.58 Y79.096
G0 X112.148 Y76.787
G0 X112.279 Y76.452
G0 X112.516 Y76.341
G0 X112.538 Y76.335
;TYPE:SKIN
G1 F2700 E11.89094
G1 F1200 X112.427 Y76.223 E11.89251
G1 F2700 E6.89251
G0 F6000 X112.425 Y76.305
G0 X111.359 Y76.125
G0 X97.482 Y80.15
G0 X96.503 Y80.15
G0 X96.617 Y80.3
;TYPE:WALL-OUTER
G1 F2700 E11.89251
G1 F1200 X94.352 Y80.3 E11.93771
G1 X94.352 Y79.946 E11.94477
G1 X96.159 Y77.709 E12.00216
G1 X96.314 Y77.442 E12.00832
G1 X96.367 Y77.109 E12.01505
G1 X96.292 Y76.783 E12.02173
G1 X96.105 Y76.504 E12.02843
G1 X95.824 Y76.32 E12.03513
G1 X95.49 Y76.269 E12.04187
G1 X95.146 Y76.343 E12.0489
G1 X94.875 Y76.533 E12.0555
G1 X94.694 Y76.817 E12.06222
G1 X94.666 Y76.946 E12.06486
G1 X94.37 Y76.946 E12.07076
G1 X94.433 Y76.706 E12.07572
G1 X94.682 Y76.335 E12.08463
G1 X95.055 Y76.083 E12.09361
G1 X95.275 Y76.023 E12.09817
G1 X95.526 Y76.011 E12.10318
G1 X95.953 Y76.109 E12.11192
G1 X96.307 Y76.366 E12.12065
G1 X96.545 Y76.736 E12.12943
G1 X96.616 Y77.177 E12.13835
G1 X96.524 Y77.605 E12.14708
G1 X96.415 Y77.793 E12.15142
G1 X94.805 Y79.809 E12.20291
G1 X94.914 Y80.036 E12.20793
G1 X96.617 Y80.036 E12.24192
G1 X96.617 Y80.3 E12.24718
G0 F6000 X96.447 Y80.186
G0 X94.83 Y80.169
G0 X94.697 Y79.99
;TYPE:SKIN
G1 F1200 X94.61 Y79.902 E12.24842
G1 F2700 E7.24842
G0 F6000 X94.63 Y79.919
G0 X94.831 Y79.513
G0 X94.079 Y78.906
G0 X92.621 Y76.966
G0 X91.551 Y76.859
G0 X91.721 Y76.969
;TYPE:WALL-OUTER
G1 F2700 E12.24842
G1 F1200 X91.417 Y76.969 E12.25449
G1 X91.349 Y76.822 E12.25772
G1 X91.143 Y76.571 E12.2642
G1 X90.883 Y76.38 E12.27064
G1 X90.568 Y76.282 E12.27722
G1 X90.244 Y76.279 E12.28369
G1 X89.943 Y76.359 E12.2899
G1 X89.662 Y76.54 E12.29657
G1 X89.451 Y76.791 E12.30312
G1 X89.319 Y77.077 E12.3094
G1 X89.269 Y77.371 E12.31535
G1 X89.251 Y77.703 E12.32199
G1 X89.245 Y77.993 E12.32778
G1 X89.245 Y78.369 E12.33528
G1 X89.255 Y78.736 E12.34261
G1 X89.277 Y79.036 E12.34861
G1 X89.356 Y79.337 E12.35482
G1 X89.522 Y79.615 E12.36128
G1 X89.749 Y79.836 E12.3676
G1 X90.032 Y79.983 E12.37397
G1 X90.347 Y80.036 E12.38034
G1 X90.652 Y80.013 E12.38645
G1 X90.952 Y79.905 E12.39281
G1 X91.202 Y79.723 E12.39898
G1 X91.397 Y79.48 E12.4052
G1 X91.516 Y79.187 E12.41151
G1 X91.553 Y78.891 E12.41746
G1 X91.555 Y78.417 E12.42692
G1 X90.605 Y78.417 E12.44588
G1 X90.605 Y78.153 E12.45115
G1 X91.807 Y78.153 E12.47513
G1 X91.807 Y78.917 E12.49038
G1 X91.781 Y79.171 E12.49548
G1 X91.614 Y79.613 E12.50491
G1 X91.47 Y79.811 E12.50979
G1 X91.287 Y79.99 E12.5149
G1 X90.881 Y80.221 E12.52422
G1 X90.403 Y80.299 E12.53389
G1 X89.935 Y80.232 E12.54332
G1 X89.539 Y80.01 E12.55238
G1 X89.214 Y79.663 E12.56187
G1 X89.04 Y79.247 E12.57087
G1 X89.009 Y79 E12.57584
G1 X88.995 Y78.641 E12.583
G1 X88.99 Y78.159 E12.59262
G1 X88.998 Y77.544 E12.6049
G1 X89.012 Y77.269 E12.61039
G1 X89.131 Y76.802 E12.62001
G1 X89.405 Y76.422 E12.62936
G1 X89.596 Y76.258 E12.63438
G1 X89.801 Y76.131 E12.6392
G1 X90.257 Y76.016 E12.64858
G1 X90.482 Y76.01 E12.65307
G1 X90.945 Y76.109 E12.66252
G1 X91.323 Y76.357 E12.67154
G1 X91.615 Y76.731 E12.68101
G1 X91.721 Y76.969 E12.68621
G1 F2700 E7.68621
G0 F6000 X91.487 Y76.811
G0 X91.239 Y76.469
G0 X90.947 Y76.254
G0 X90.59 Y76.143
G0 X90.227 Y76.14
G0 X89.886 Y76.23
G0 X89.569 Y76.435
G0 X89.333 Y76.716
G0 X89.185 Y77.036
G0 X89.141 Y77.792
G0 X89.114 Y78.637
G0 X87.627 Y79.166
G0 X87.412 Y78.964
G1 F2700 E12.68621
G1 F1200 X86.949 Y77.602 E12.71492
G1 X86.617 Y76.563 E12.73669
G1 X86.326 Y76.563 E12.74249
G1 X85.908 Y77.852 E12.76954
G1 X85.527 Y78.964 E12.79299
G1 X87.412 Y78.964 E12.83061
G1 F2700 E7.83061
G0 F6000 X87.412 Y79.078
G0 X87.915 Y80.143
G0 X88.138 Y80.3
G1 F2700 E12.83061
G1 F1200 X87.837 Y80.3 E12.83662
G1 X87.485 Y79.228 E12.85913
G1 X85.461 Y79.228 E12.89952
G1 X85.096 Y80.3 E12.92212
G1 X84.789 Y80.3 E12.92825
G1 X86.319 Y76.008 E13.01918
G1 X86.609 Y76.008 E13.02497
G1 X88.138 Y80.3 E13.11589
G1 F2700 E8.11589
G0 F6000 X87.922 Y80.142
G0 X86.912 Y77.157
G0 X86.649 Y76.452
G0 X86.55 Y76.368
;TYPE:SKIN
G1 F2700 E13.11589
G1 F1200 X86.421 Y76.239 E13.11771
G1 F2700 E8.11771
G0 F6000 X86.425 Y76.305
G0 X85.359 Y76.125
G0 X71.275 Y76.452
G0 X70.29 Y76.452
G0 X70.307 Y80.13
G0 X70.41 Y80.3
;TYPE:WALL-OUTER
G1 F2700 E13.11771
G1 F1200 X70.157 Y80.3 E13.12276
G1 X70.157 Y76.395 E13.20069
G1 X69.939 Y76.284 E13.20557
G1 X69.486 Y76.613 E13.21675
G1 X69.486 Y76.396 E13.22108
G1 X70.022 Y76.008 E13.23428
G1 X70.41 Y76.008 E13.24202
G1 X70.41 Y80.3 E13.32767
G1 F2700 E8.32767
G0 F6000 X70.307 Y80.13
G0 X70.277 Y76.811
G0 X69.298 Y77.751
G0 X68.756 Y77.475
G0 X67.522 Y76.627
G0 X66.551 Y76.859
G0 X66.721 Y76.969
G1 F2700 E13.32767
G1 F1200 X66.417 Y76.969 E13.33374
G1 X66.349 Y76.822 E13.33697
G1 X66.143 Y76.571 E13.34345
G1 X65.883 Y76.38 E13.34989
G1 X65.568 Y76.282 E13.35648
G1 X65.244 Y76.279 E13.36294
G1 X64.943 Y76.359 E13.36916
G1 X64.662 Y76.54 E13.37583
G1 X64.451 Y76.791 E13.38237
G1 X64.319 Y77.077 E13.38866
G1 X64.269 Y77.371 E13.39461
G1 X64.251 Y77.703 E13.40124
G1 X64.245 Y77.993 E13.40703
G1 X64.245 Y78.369 E13.41454
G1 X64.255 Y78.736 E13.42186
G1 X64.277 Y79.036 E13.42786
G1 X64.356 Y79.337 E13.43407
G1 X64.511 Y79.601 E13.44018
G1 X64.733 Y79.825 E13.44648
G1 X65.01 Y79.975 E13.45276
G1 X65.322 Y80.034 E13.4591
G1 X65.629 Y80.017 E13.46524
G1 X65.928 Y79.918 E13.47152
G1 X66.187 Y79.738 E13.47782
G1 X66.385 Y79.499 E13.48401
G1 X66.509 Y79.21 E13.49029
G1 X66.553 Y78.913 E13.49628
G1 X66.555 Y78.417 E13.50618
G1 X65.605 Y78.417 E13.52513
G1 X65.605 Y78.153 E13.5304
G1 X66.807 Y78.153 E13.55439
G1 X66.807 Y78.913 E13.56956
G1 X66.781 Y79.171 E13.57473
G1 X66.614 Y79.613 E13.58416
G1 X66.47 Y79.811 E13.58905
G1 X66.287 Y79.99 E13.59415
G1 X65.881 Y80.221 E13.60348
G1 X65.403 Y80.299 E13.61314
G1 X64.935 Y80.232 E13.62258
G1 X64.539 Y80.01 E13.63164
G1 X64.214 Y79.663 E13.64112
G1 X64.04 Y79.247 E13.65012
G1 X64.009 Y79 E13.65509
G1 X63.995 Y78.641 E13.66226
G1 X63.99 Y78.159 E13.67188
G1 X63.998 Y77.544 E13.68415
G1 X64.012 Y77.269 E13.68965
G1 X64.131 Y76.802 E13.69927
G1 X64.405 Y76.422 E13.70861
G1 X64.596 Y76.258 E13.71364
G1 X64.801 Y76.131 E13.71845
G1 X65.257 Y76.016 E13.72784
G1 X65.482 Y76.01 E13.73233
G1 X65.945 Y76.109 E13.74178
G1 X66.323 Y76.357 E13.7508
G1 X66.615 Y76.731 E13.76027
G1 X66.721 Y76.969 E13.76547
G1 F2700 E8.76547
G0 F6000 X66.487 Y76.811
G0 X66.239 Y76.469
G0 X65.947 Y76.254
G0 X65.59 Y76.143
G0 X65.227 Y76.14
G0 X64.886 Y76.23
G0 X64.569 Y76.435
G0 X64.333 Y76.716
G0 X64.185 Y77.036
G0 X64.141 Y77.792
G0 X64.114 Y78.637
G0 X62.627 Y79.166
G0 X62.412 Y78.964
G1 F2700 E13.76547
G1 F1200 X61.949 Y77.602 E13.79417
G1 X61.617 Y76.563 E13.81594
G1 X61.326 Y76.563 E13.82175
G1 X60.908 Y77.852 E13.84879
G1 X60.527 Y78.964 E13.87225
G1 X62.412 Y78.964 E13.90987
G1 F2700 E8.90987
G0 F6000 X62.412 Y79.078
G0 X62.915 Y80.143
G0 X63.138 Y80.3
G1 F2700 E13.90987
G1 F1200 X62.837 Y80.3 E13.91587
G1 X62.485 Y79.228 E13.93839
G1 X60.461 Y79.228 E13.97878
G1 X60.096 Y80.3 E14.00138
G1 X59.789 Y80.3 E14.00751
G1 X61.319 Y76.008 E14.09844
G1 X61.609 Y76.008 E14.10422
G1 X63.138 Y80.3 E14.19515
G1 F2700 E9.19515
G0 F6000 X62.922 Y80.142
G0 X62.92 Y81.165
G0 X53.351 Y114.143
G0 X53.351 Y115.152
G0 X51.985 Y115.144
G0 X52.01 Y119.13
G0 X52.113 Y119.3
G1 F2700 E14.19515
G1 F1200 X51.86 Y119.3 E14.2002
G1 X51.86 Y115.272 E14.28058
G1 X50.653 Y115.272 E14.30467
G1 X50.653 Y115.008 E14.30994
G1 X53.471 Y115.008 E14.36617
G1 X53.471 Y115.272 E14.37144
G1 X52.113 Y115.272 E14.39854
G1 X52.113 Y119.3 E14.47892
G1 F2700 E9.47892
G0 F6000 X52.01 Y119.13
G0 X51.98 Y117.025
G0 X49.644 Y116.511
G0 X47.233 Y117.025
G0 X47.287 Y117.025
G1 F2700 E14.47892
G1 F1200 X48.656 Y117.024 E14.50624
G1 X48.952 Y116.977 E14.51222
G1 X49.255 Y116.819 E14.51904
G1 X49.471 Y116.558 E14.5258
G1 X49.575 Y116.238 E14.53252
G1 X49.562 Y115.904 E14.53919
G1 X49.418 Y115.59 E14.54608
G1 X49.147 Y115.378 E14.55295
G1 X48.85 Y115.288 E14.55914
G1 X48.623 Y115.272 E14.56368
G1 X47.287 Y115.272 E14.59035
G1 X47.287 Y117.025 E14.62533
G1 F2700 E9.62533
G0 F6000 X47.087 Y117.025
G0 X47.129 Y117.963
G0 X47.161 Y119.172
G0 X47.159 Y117.161
G0 X49.632 Y119.148
G0 X49.88 Y119.3
G1 F2700 E14.62533
G1 F1200 X49.512 Y119.3 E14.63267
G1 X48.534 Y117.289 E14.6773
G1 X47.287 Y117.289 E14.70218
G1 X47.287 Y119.3 E14.74231
G1 X47.033 Y119.3 E14.74738
G1 X47.033 Y115.008 E14.83304
G1 X48.677 Y115.008 E14.86584
G1 X49.135 Y115.087 E14.87512
G1 X49.496 Y115.321 E14.8837
G1 X49.745 Y115.688 E14.89255
G1 X49.834 Y116.117 E14.9013
G1 X49.758 Y116.554 E14.91015
G1 X49.515 Y116.939 E14.91923
G1 X49.139 Y117.191 E14.92827
G1 X48.861 Y117.298 E14.93421
G1 X49.88 Y119.3 E14.97904
G1 F2700 E9.97904
G0 F6000 X49.589 Y119.169
G0 X48.618 Y117.156
G0 X47.159 Y117.161
G0 X47.153 Y119.017
G0 X45.581 Y118.458
G0 X44.83 Y119.017
G0 X44.831 Y118.967
G1 F2700 E14.97904
G1 F1200 X45.115 Y118.801 E14.98561
G1 X45.333 Y118.569 E14.99196
G1 X45.477 Y118.293 E14.99817
G1 X45.544 Y118.006 E15.00405
G1 X45.566 Y117.648 E15.01121
G1 X45.573 Y117.329 E15.01758
G1 X45.574 Y116.937 E15.0254
G1 X45.563 Y116.574 E15.03265
G1 X45.541 Y116.277 E15.03859
G1 X45.462 Y115.977 E15.04478
G1 X45.298 Y115.687 E15.05143
G1 X45.066 Y115.473 E15.05773
G1 X44.786 Y115.326 E15.06404
G1 X44.467 Y115.271 E15.0705
G1 X44.141 Y115.301 E15.07703
G1 X43.836 Y115.43 E15.08364
G1 X43.59 Y115.632 E15.08999
G1 X43.421 Y115.884 E15.09605
G1 X43.317 Y116.167 E15.10207
G1 X43.281 Y116.493 E15.10861
G1 X43.268 Y116.834 E15.11542
G1 X43.265 Y117.152 E15.12177
G1 X43.271 Y117.588 E15.13047
G1 X43.286 Y117.89 E15.1365
G1 X43.323 Y118.175 E15.14224
G1 X43.441 Y118.465 E15.14849
G1 X43.625 Y118.711 E15.15462
G1 X43.875 Y118.903 E15.16091
G1 X44.183 Y119.017 E15.16746
G1 X44.513 Y119.035 E15.17406
G1 X44.831 Y118.967 E15.18055
G0 F6000 X45.066 Y119.154
G1 F1200 X44.626 Y119.287 E15.18972
G1 X44.16 Y119.28 E15.19902
G1 X43.721 Y119.126 E15.2083
G1 X43.356 Y118.818 E15.21784
G1 X43.125 Y118.445 E15.22659
G1 X43.03 Y117.985 E15.23596
G1 X43.016 Y117.641 E15.24283
G1 X43.012 Y117.159 E15.25245
G1 X43.02 Y116.544 E15.26473
G1 X43.034 Y116.268 E15.27024
G1 X43.151 Y115.805 E15.27977
G1 X43.427 Y115.422 E15.28919
G1 X43.618 Y115.258 E15.29422
G1 X43.823 Y115.131 E15.29903
G1 X44.279 Y115.016 E15.30842
G1 X44.496 Y115.01 E15.31275
G1 X44.752 Y115.041 E15.31789
G1 X45.159 Y115.212 E15.3267
G1 X45.356 Y115.369 E15.33173
G1 X45.649 Y115.72 E15.34085
G1 X45.791 Y116.147 E15.34983
G1 X45.816 Y116.489 E15.35668
G1 X45.826 Y116.911 E15.3651
G1 X45.829 Y117.153 E15.36993
G1 X45.82 Y117.77 E15.38225
G1 X45.806 Y118.046 E15.38776
G1 X45.691 Y118.51 E15.3973
G1 X45.434 Y118.872 E15.40616
G1 X45.066 Y119.154 E15.41541
G1 F2700 E10.41541
G0 F6000 X45.035 Y119.079
G0 X44.524 Y119.175
G0 X44.154 Y119.155
G0 X43.807 Y119.027
G0 X43.237 Y118.4
G0 X41.931 Y118.336
G0 X41.843 Y118.617
G0 X41.598 Y118.938
G0 X41.263 Y119.118
G0 X40.919 Y119.174
G0 X39.384 Y119.164
G0 X39.512 Y119.036
G1 F2700 E15.41541
G1 F1200 X40.908 Y119.035 E15.44327
G1 X41.219 Y118.985 E15.44956
G1 X41.507 Y118.83 E15.45608
G1 X41.717 Y118.555 E15.46299
G1 X41.805 Y118.228 E15.46975
G1 X41.77 Y117.897 E15.47639
G1 X41.613 Y117.606 E15.48299
G1 X41.355 Y117.39 E15.4897
G1 X41.05 Y117.298 E15.49606
G1 X40.833 Y117.283 E15.5004
G1 X39.512 Y117.283 E15.52676
G1 X39.512 Y119.036 E15.56175
G1 F2700 E10.56175
G0 F6000 X39.408 Y119.036
G0 X39.312 Y117.019
G0 X39.512 Y117.019
G1 F2700 E15.56175
G1 F1200 X40.78 Y117.019 E15.58705
G1 X41.094 Y116.974 E15.59338
G1 X41.39 Y116.819 E15.60005
G1 X41.596 Y116.555 E15.60673
G1 X41.686 Y116.24 E15.61327
G1 X41.66 Y115.905 E15.61997
G1 X41.515 Y115.61 E15.62653
G1 X41.258 Y115.383 E15.63338
G1 X40.951 Y115.286 E15.6398
G1 X40.743 Y115.272 E15.64396
G1 X39.512 Y115.272 E15.66853
G1 X39.512 Y117.019 E15.70339
G1 F2700 E10.70339
G0 F6000 X39.312 Y117.019
G0 X39.355 Y117.845
G0 X39.386 Y119.172
G0 X39.258 Y119.3
G1 F2700 E15.70339
G1 F1200 X39.258 Y115.008 E15.78904
G1 X40.851 Y115.008 E15.82083
G1 X41.319 Y115.088 E15.83031
G1 X41.505 Y115.181 E15.83446
G1 X41.673 Y115.326 E15.83889
G1 X41.803 Y115.506 E15.84332
G1 X41.934 Y115.949 E15.85254
G1 X41.901 Y116.391 E15.86138
G1 X41.83 Y116.582 E15.86545
G1 X41.711 Y116.746 E15.86949
G1 X41.521 Y116.895 E15.87431
G1 X41.307 Y117.039 E15.87946
G1 X41.334 Y117.281 E15.88432
G1 X41.663 Y117.406 E15.89134
G1 X41.818 Y117.528 E15.89528
G1 X42.02 Y117.913 E15.90395
G1 X42.051 Y118.345 E15.9126
G1 X41.929 Y118.759 E15.92121
G1 X41.796 Y118.945 E15.92577
G1 X41.449 Y119.2 E15.93437
G1 X41.012 Y119.299 E15.94331
G1 X39.258 Y119.3 E15.97831
G1 F2700 E10.97831
G0 F6000 X39.362 Y119.099
G0 X39.378 Y118.078
G0 X37.796 Y118.641
G0 X37.412 Y118.078
G0 X37.412 Y117.964
G1 F2700 E15.97831
G1 F1200 X36.949 Y116.602 E16.00702
G1 X36.617 Y115.563 E16.02879
G1 X36.326 Y115.563 E16.03459
G1 X35.908 Y116.852 E16.06163
G1 X35.527 Y117.964 E16.08509
G1 X37.412 Y117.964 E16.12271
G1 F2700 E11.12271
G0 F6000 X37.412 Y118.078
G0 X37.915 Y119.143
G0 X38.138 Y119.3
G1 F2700 E16.12271
G1 F1200 X37.837 Y119.3 E16.12872
G1 X37.485 Y118.228 E16.15123
G1 X35.461 Y118.228 E16.19162
G1 X35.096 Y119.3 E16.21422
G1 X34.789 Y119.3 E16.22035
G1 X36.319 Y115.008 E16.31128
G1 X36.609 Y115.008 E16.31707
G1 X38.138 Y119.3 E16.40799
G1 F2700 E11.40799
G0 F6000 X37.922 Y119.142
G0 X37.58 Y118.096
G0 X35.355 Y118.087
G0 X36.148 Y115.787
G0 X36.279 Y115.452
G0 X36.473 Y115.387
;TYPE:SKIN
G1 F2700 E16.40799
G1 F1200 X36.396 Y115.31 E16.40908
G1 F2700 E11.40908
G0 F6000 X36.379 Y115.288
G0 X36.649 Y115.452
G0 X37.568 Y115.124
G0 X37.214 Y114.151
G0 X35.714 Y114.151
G0 X33.588 Y120.148
G0 X38.386 Y152.019
G0 X38.386 Y152.699
G0 X39.804 Y152.979
;TYPE:WALL-OUTER
G1 F2700 E16.40908
G1 F1200 X39.634 Y152.911 E16.41273
G1 X39.708 Y152.924 E16.41423
G1 X39.804 Y152.979 E16.41644
G0 F6000 X40.083 Y153.478
G1 F1200 X40.086 Y153.54 E16.41768
G1 X40.079 Y153.568 E16.41825
G1 X40.083 Y153.478 E16.42005
G0 F6000 X39.8 Y153.998
G1 F1200 X39.785 Y154.011 E16.42045
G1 X39.483 Y154.147 E16.42706
G1 X40.069 Y155.3 E16.45287
G1 X40.029 Y155.3 E16.45367
G1 X39.443 Y154.094 E16.48042
G1 X39.506 Y154.094 E16.48168
G1 X39.8 Y153.998 E16.48785
G1 F2700 E11.48785
G0 F6000 X38.843 Y153.931
G0 X38.392 Y153.739
G0 X37.767 Y153.585
G0 X37.542 Y153.739
G1 F2700 E16.48785
G1 F1200 X37.727 Y152.885 E16.50529
G1 X37.751 Y152.885 E16.50577
G1 X37.542 Y153.739 E16.52332
G0 F6000 X37.271 Y154.197
G0 X37.001 Y154.204
G0 X36.442 Y152.897
G1 F1200 X36.544 Y153.272 E16.53107
G1 X36.342 Y153.272 E16.5351
G1 X36.442 Y152.897 E16.54285
G0 F6000 X35.919 Y154.204
G0 X35.65 Y154.197
G0 X35.381 Y153.9
G1 F1200 X35.133 Y152.885 E16.5637
G1 X35.158 Y152.885 E16.5642
G1 X35.381 Y153.9 E16.58494
G0 F6000 X35.864 Y154.889
G1 F1200 X35.758 Y155.3 E16.59341
G1 X35.724 Y155.3 E16.59408
G1 X35.622 Y154.884 E16.60263
G1 X35.864 Y154.889 E16.60746
G0 F6000 X36.291 Y153.916
G0 X36.556 Y153.916
G0 X37.262 Y154.884
G1 F1200 X37.16 Y155.3 E16.61601
G1 X37.124 Y155.3 E16.61673
G1 X37.016 Y154.89 E16.62519
G1 X37.262 Y154.884 E16.6301
G0 F6000 X37.201 Y154.803
G1 F2700 E11.6301
G0 F6000 X36.586 Y153.916
G0 X36.038 Y153.777
G0 X35.919 Y154.204
G0 X35.62 Y154.196
G0 X35.414 Y153.227
G0 X34.899 Y152.774
G0 X34.55 Y153.016
G0 X34.166 Y152.953
G1 F2700 E16.6301
G1 F1200 X34.262 Y152.998 E16.63222
G1 X34.286 Y153.019 E16.63285
G1 X34.166 Y152.953 E16.63559
G0 F6000 X34.497 Y153.293
G1 F1200 X34.502 Y153.302 E16.63579
G1 X34.502 Y153.303 E16.63581
G1 X34.497 Y153.293 E16.63603
G0 F6000 X34.002 Y154.158
G1 F1200 X34.208 Y154.09 E16.64036
G1 X34.151 Y154.124 E16.64169
G1 X34.002 Y154.158 E16.64474
G0 F6000 X34.083 Y154.343
G1 F2700 E11.64474
G0 F6000 X34.063 Y154.247
G0 X34.596 Y153.964
G0 X34.721 Y154.77
G0 X35.053 Y156.156
G0 X59.241 Y164.684
G0 X59.97 Y165.333
G0 X59.802 Y165.353
G1 F2700 E16.64474
G1 F1200 X59.999 Y165.131 E16.65066
G1 X60.088 Y165.194 E16.65284
G1 X60.36 Y165.337 E16.65897
G1 X60.651 Y165.444 E16.66516
G1 X60.964 Y165.512 E16.67155
G1 X61.241 Y165.535 E16.6771
G1 X61.549 Y165.519 E16.68325
G1 X61.851 Y165.442 E16.68947
G1 X62.128 Y165.279 E16.69588
G1 X62.339 Y165.006 E16.70277
G1 X62.401 Y164.666 E16.70967
G1 X62.338 Y164.331 E16.71647
G1 X62.124 Y164.048 E16.72355
G1 X61.832 Y163.902 E16.73006
G1 X61.482 Y163.842 E16.73715
G1 X61.178 Y163.802 E16.74327
G1 X60.712 Y163.708 E16.75276
G1 X60.318 Y163.489 E16.76175
G1 X60.055 Y163.123 E16.77075
G1 X59.97 Y162.706 E16.77924
G1 X60.037 Y162.242 E16.78859
G1 X60.26 Y161.873 E16.7972
G1 X60.613 Y161.624 E16.80582
G1 X61.062 Y161.517 E16.81503
G1 X61.31 Y161.509 E16.81998
G1 X61.587 Y161.532 E16.82553
G1 X62.049 Y161.654 E16.83507
G1 X62.442 Y161.833 E16.84368
G1 X62.293 Y162.068 E16.84924
G1 X62.229 Y162.033 E16.85069
G1 X61.977 Y161.921 E16.85619
G1 X61.676 Y161.826 E16.86249
G1 X61.374 Y161.778 E16.8686
G1 X61.077 Y161.777 E16.87452
G1 X60.771 Y161.845 E16.88078
G1 X60.487 Y162.005 E16.88728
G1 X60.282 Y162.284 E16.89419
G1 X60.218 Y162.624 E16.9011
G1 X60.292 Y162.956 E16.90789
G1 X60.512 Y163.23 E16.9149
G1 X60.8 Y163.376 E16.92134
G1 X61.149 Y163.448 E16.92845
G1 X61.661 Y163.517 E16.93876
G1 X62.084 Y163.656 E16.94765
G1 X62.278 Y163.79 E16.95235
G1 X62.546 Y164.164 E16.96154
G1 X62.648 Y164.579 E16.97006
G1 X62.595 Y165.042 E16.97936
G1 X62.383 Y165.404 E16.98774
G1 X62.021 Y165.656 E16.99654
G1 X61.559 Y165.782 E17.00609
G1 X61.291 Y165.799 E17.01145
G1 X60.798 Y165.764 E17.02132
G1 X60.532 Y165.707 E17.02674
G1 X60.288 Y165.625 E17.03188
G1 X60.056 Y165.516 E17.037
G1 X59.842 Y165.385 E17.042
G1 X59.802 Y165.353 E17.04303
G1 F2700 E12.04303
G0 F6000 X60.046 Y165.335
G0 X60.612 Y165.578
G0 X61.239 Y165.674
G0 X61.904 Y165.571
G0 X62.221 Y165.385
G0 X62.469 Y165.064
G0 X62.543 Y164.666
G0 X63.805 Y165.043
G0 X63.986 Y164.596
G0 X66.032 Y164.578
G0 X66.032 Y164.464
G1 F2700 E17.04303
G1 F1200 X65.569 Y163.102 E17.07173
G1 X65.446 Y162.725 E17.07965
G1 X65.238 Y162.064 E17.09348
G1 X64.946 Y162.062 E17.0993
G1 X64.528 Y163.352 E17.12636
G1 X64.147 Y164.464 E17.14982
G1 X66.032 Y164.464 E17.18744
G1 F2700 E12.18744
G0 F6000 X66.032 Y164.578
G0 X66.535 Y165.643
G0 X66.758 Y165.8
G1 F2700 E17.18744
G1 F1200 X66.457 Y165.8 E17.19345
G1 X66.105 Y164.728 E17.21596
G1 X64.081 Y164.728 E17.25635
G1 X63.716 Y165.8 E17.27895
G1 X63.409 Y165.8 E17.28508
G1 X64.938 Y161.508 E17.376
G1 X65.228 Y161.508 E17.38179
G1 X66.758 Y165.8 E17.47272
G1 F2700 E12.47272
G0 F6000 X66.542 Y165.642
G0 X66.2 Y164.596
G0 X63.975 Y164.587
G0 X64.198 Y163.944
G0 X64.898 Y161.951
G0 X65.144 Y161.867
G0 X65.154 Y161.887
;TYPE:SKIN
G1 F2700 E17.47272
G1 F1200 X65.032 Y161.764 E17.47445
G1 F2700 E12.47445
G0 F6000 X65.044 Y161.804
G0 X65.269 Y161.954
G0 X66.187 Y161.626
G0 X67.157 Y164.404
G0 X67.657 Y165.284
G0 X67.443 Y165.353
;TYPE:WALL-OUTER
G1 F2700 E17.47445
G1 F1200 X67.641 Y165.132 E17.48037
G1 X67.729 Y165.194 E17.48252
G1 X68.002 Y165.337 E17.48867
G1 X68.292 Y165.444 E17.49484
G1 X68.605 Y165.512 E17.50123
G1 X68.883 Y165.535 E17.5068
G1 X69.19 Y165.519 E17.51293
G1 X69.492 Y165.442 E17.51915
G1 X69.77 Y165.279 E17.52558
G1 X69.98 Y165.006 E17.53246
G1 X70.042 Y164.666 E17.53935
G1 X69.979 Y164.331 E17.54616
G1 X69.765 Y164.047 E17.55325
G1 X69.458 Y163.899 E17.56005
G1 X69.123 Y163.842 E17.56684
G1 X68.82 Y163.802 E17.57293
G1 X68.354 Y163.708 E17.58242
G1 X67.96 Y163.489 E17.59142
G1 X67.696 Y163.119 E17.60049
G1 X67.611 Y162.706 E17.6089
G1 X67.677 Y162.244 E17.61822
G1 X67.899 Y161.876 E17.62679
G1 X68.256 Y161.623 E17.63552
G1 X68.704 Y161.517 E17.64471
G1 X68.951 Y161.509 E17.64964
G1 X69.228 Y161.532 E17.65519
G1 X69.69 Y161.654 E17.66473
G1 X70.083 Y161.833 E17.67334
G1 X69.935 Y162.068 E17.67889
G1 X69.871 Y162.033 E17.68034
G1 X69.618 Y161.921 E17.68586
G1 X69.317 Y161.826 E17.69216
G1 X69.016 Y161.778 E17.69824
G1 X68.718 Y161.777 E17.70419
G1 X68.411 Y161.845 E17.71047
G1 X68.13 Y162.005 E17.71692
G1 X67.923 Y162.284 E17.72385
G1 X67.859 Y162.625 E17.73078
G1 X67.934 Y162.956 E17.73755
G1 X68.153 Y163.228 E17.74452
G1 X68.441 Y163.376 E17.75098
G1 X68.791 Y163.448 E17.75811
G1 X69.302 Y163.517 E17.7684
G1 X69.727 Y163.657 E17.77733
G1 X70.046 Y163.931 E17.78572
G1 X70.245 Y164.321 E17.79446
G1 X70.289 Y164.761 E17.80328
G1 X70.172 Y165.198 E17.81231
G1 X69.89 Y165.523 E17.8209
G1 X69.478 Y165.723 E17.83004
G1 X69.223 Y165.777 E17.83524
G1 X68.981 Y165.799 E17.84009
G1 X68.685 Y165.792 E17.846
G1 X68.429 Y165.763 E17.85114
G1 X68.182 Y165.71 E17.85618
G1 X67.93 Y165.625 E17.86149
G1 X67.697 Y165.516 E17.86662
G1 X67.483 Y165.385 E17.87163
G1 X67.443 Y165.353 E17.87265
G1 F2700 E12.87265
G0 F6000 X67.688 Y165.335
G0 X68.253 Y165.578
G0 X68.881 Y165.674
G0 X69.545 Y165.571
G0 X69.863 Y165.385
G0 X70.11 Y165.064
G0 X70.168 Y164.752
G0 X71.153 Y164.739
G0 X85.371 Y164.752
G0 X86.356 Y164.752
G0 X86.362 Y163.661
G0 X86.49 Y163.525
G1 F2700 E17.87265
G1 F1200 X87.859 Y163.524 E17.89997
G1 X88.152 Y163.478 E17.90589
G1 X88.445 Y163.33 E17.91244
G1 X88.665 Y163.074 E17.91918
G1 X88.777 Y162.756 E17.9259
G1 X88.769 Y162.424 E17.93253
G1 X88.632 Y162.103 E17.9395
G1 X88.369 Y161.888 E17.94628
G1 X88.054 Y161.788 E17.95287
G1 X87.826 Y161.772 E17.95743
G1 X86.49 Y161.772 E17.98409
G1 X86.49 Y163.525 E18.01908
G1 F2700 E13.01908
G0 F6000 X86.29 Y163.525
G0 X86.332 Y164.462
G0 X86.364 Y165.672
G0 X86.362 Y163.661
G0 X88.835 Y165.648
G0 X89.083 Y165.8
G1 F2700 E18.01908
G1 F1200 X88.715 Y165.8 E18.02642
G1 X87.736 Y163.789 E18.07105
G1 X86.49 Y163.789 E18.09592
G1 X86.49 Y165.8 E18.13605
G1 X86.236 Y165.8 E18.14112
G1 X86.236 Y161.508 E18.22677
G1 X87.88 Y161.508 E18.25958
G1 X88.338 Y161.587 E18.26885
G1 X88.699 Y161.821 E18.27744
G1 X88.946 Y162.184 E18.2862
G1 X89.036 Y162.618 E18.29505
G1 X88.961 Y163.054 E18.30388
G1 X88.716 Y163.441 E18.31302
G1 X88.342 Y163.691 E18.32199
G1 X88.062 Y163.797 E18.32797
G1 X89.083 Y165.8 E18.37283
G1 F2700 E13.37283
G0 F6000 X88.792 Y165.669
G0 X90.223 Y164.922
G0 X90.655 Y165.448
G0 X90.974 Y165.616
G0 X91.329 Y165.677
G0 X91.691 Y165.641
G0 X91.954 Y165.53
G0 X92.473 Y165.093
G0 X92.727 Y164.893
G1 F2700 E18.37283
G1 F1200 X92.506 Y165.302 E18.38211
G1 X92.155 Y165.603 E18.39134
G1 X91.723 Y165.767 E18.40056
G1 X91.246 Y165.793 E18.41009
G1 X90.789 Y165.673 E18.41952
G1 X90.587 Y165.546 E18.42428
G1 X90.381 Y165.366 E18.42974
G1 X90.111 Y164.969 E18.43932
G1 X90.009 Y164.5 E18.4489
G1 X89.995 Y164.141 E18.45607
G1 X89.99 Y163.659 E18.46569
G1 X89.998 Y163.044 E18.47797
G1 X90.012 Y162.769 E18.48346
G1 X90.13 Y162.305 E18.49302
G1 X90.388 Y161.94 E18.50194
G1 X90.751 Y161.657 E18.51112
G1 X91.194 Y161.522 E18.52036
G1 X91.449 Y161.509 E18.52546
G1 X91.668 Y161.529 E18.52985
G1 X91.915 Y161.594 E18.53494
G1 X92.307 Y161.831 E18.54408
G1 X92.603 Y162.188 E18.55334
G1 X92.725 Y162.451 E18.55913
G1 X92.387 Y162.451 E18.56587
G1 X92.322 Y162.31 E18.56897
G1 X92.119 Y162.062 E18.57536
G1 X91.853 Y161.873 E18.58188
G1 X91.542 Y161.78 E18.58835
G1 X91.229 Y161.779 E18.5946
G1 X90.918 Y161.866 E18.60105
G1 X90.647 Y162.048 E18.60756
G1 X90.446 Y162.293 E18.61388
G1 X90.319 Y162.578 E18.62011
G1 X90.269 Y162.871 E18.62604
G1 X90.251 Y163.203 E18.63268
G1 X90.245 Y163.493 E18.63847
G1 X90.245 Y163.869 E18.64597
G1 X90.255 Y164.236 E18.6533
G1 X90.277 Y164.535 E18.65928
G1 X90.354 Y164.836 E18.66548
G1 X90.516 Y165.113 E18.67188
G1 X90.738 Y165.335 E18.67815
G1 X91.019 Y165.483 E18.68449
G1 X91.334 Y165.537 E18.69086
G1 X91.657 Y165.505 E18.69734
G1 X91.943 Y165.383 E18.70355
G1 X92.185 Y165.178 E18.70988
G1 X92.353 Y164.944 E18.71562
G1 X92.38 Y164.893 E18.71678
G1 X92.727 Y164.893 E18.7237
G0 F6000 X93.309 Y165.353
G1 F1200 X93.507 Y165.132 E18.72962
G1 X93.595 Y165.194 E18.73177
G1 X93.868 Y165.337 E18.73792
G1 X94.158 Y165.444 E18.74409
G1 X94.471 Y165.512 E18.75048
G1 X94.749 Y165.535 E18.75605
G1 X95.056 Y165.519 E18.76218
G1 X95.358 Y165.442 E18.7684
G1 X95.636 Y165.279 E18.77483
G1 X95.846 Y165.006 E18.78171
G1 X95.908 Y164.666 E18.7886
G1 X95.845 Y164.331 E18.79541
G1 X95.631 Y164.047 E18.8025
G1 X95.324 Y163.899 E18.8093
G1 X94.989 Y163.842 E18.81608
G1 X94.686 Y163.802 E18.82218
G1 X94.22 Y163.708 E18.83167
G1 X93.826 Y163.489 E18.84067
G1 X93.562 Y163.119 E18.84974
G1 X93.477 Y162.706 E18.85815
G1 X93.543 Y162.244 E18.86747
G1 X93.765 Y161.876 E18.87604
G1 X94.122 Y161.623 E18.88477
G1 X94.57 Y161.517 E18.89396
G1 X94.817 Y161.509 E18.89889
G1 X95.094 Y161.532 E18.90444
G1 X95.556 Y161.654 E18.91398
G1 X95.949 Y161.833 E18.92259
G1 X95.801 Y162.068 E18.92814
G1 X95.737 Y162.033 E18.92959
G1 X95.484 Y161.921 E18.93511
G1 X95.183 Y161.826 E18.94141
G1 X94.882 Y161.778 E18.94749
G1 X94.584 Y161.777 E18.95344
G1 X94.277 Y161.845 E18.95972
G1 X93.996 Y162.005 E18.96617
G1 X93.789 Y162.284 E18.9731
G1 X93.725 Y162.625 E18.98003
G1 X93.8 Y162.956 E18.9868
G1 X94.02 Y163.23 E18.99381
G1 X94.307 Y163.376 E19.00024
G1 X94.656 Y163.448 E19.00735
G1 X95.168 Y163.517 E19.01766
G1 X95.593 Y163.657 E19.02659
G1 X95.912 Y163.931 E19.03498
G1 X96.111 Y164.321 E19.04372
G1 X96.155 Y164.76 E19.05252
G1 X96.038 Y165.197 E19.06155
G1 X95.756 Y165.523 E19.07015
G1 X95.344 Y165.723 E19.07929
G1 X95.089 Y165.777 E19.08449
G1 X94.847 Y165.799 E19.08934
G1 X94.551 Y165.792 E19.09525
G1 X94.295 Y165.763 E19.10039
G1 X94.051 Y165.71 E19.10538
G1 X93.792 Y165.623 E19.11083
G1 X93.563 Y165.516 E19.11587
G1 X93.349 Y165.385 E19.12088
G1 X93.309 Y165.353 E19.1219
G1 F2700 E14.1219
G0 F6000 X93.554 Y165.335
G0 X93.154 Y166.279
G0 X93.478 Y188.835
G0 X93.478 Y189.5
G0 X10.3 Y189.7
G1 F2700 E19.1219
G1 F1200 X224.7 Y189.7 E23.40048
G1 X224.7 Y45.3 E26.28214
G1 X10.3 Y45.3 E30.56073
G1 X10.3 Y189.7 E33.44238
G1 F2700 E28.44238
G0 F6000 X224.8 Y189.8
G1 F2700 E33.44238
G1 F1200 X10.2 Y189.8 E37.72496
G1 X10.2 Y45.2 E40.61061
G1 X224.8 Y45.2 E44.89318
G1 X224.8 Y189.8 E47.77883
G0 F6000 X224.6 Y189.6
;TIME_ELAPSED:186.934011
G1 F2700 E42.77883
M140 S0
G91 ;Relative positioning
G1 E-2 F2700 ;Retract a bit
G1 E-2 Z0.2 F2400 ;Retract and raise Z
G1 X5 Y5 F3000 ;Wipe out
G1 Z10 ;Raise Z more
G90 ;Absolute positionning

G1 X0 Y235 ;Present print
M106 S0 ;Turn-off fan
M104 S0 ;Turn-off hotend
M140 S0 ;Turn-off bed

M84 X Y E ;Disable all steppers but Z

M82 ;absolute extrusion mode
M104 S0
;End of Gcode
;SETTING_3 {"extruder_quality": ["[general]\\nversion = 4\\nname = Super Quality
;SETTING_3  #2\\ndefinition = creality_ender3\\n\\n[metadata]\\ntype = quality_c
;SETTING_3 hanges\\nquality_type = super\\nposition = 0\\nsetting_version = 16\\
;SETTING_3 n\\n[values]\\nretraction_hop = 0.5\\n\\n"], "global_quality": "[gene
;SETTING_3 ral]\\nversion = 4\\nname = Super Quality #2\\ndefinition = creality_
;SETTING_3 ender3\\n\\n[metadata]\\ntype = quality_changes\\nquality_type = supe
;SETTING_3 r\\nsetting_version = 16\\n\\n[values]\\nadhesion_type = none\\nmater
;SETTING_3 ial_bed_temperature = 60\\n\\n"}
